\relax 
\providecommand*\new@tpo@label[2]{}
\abx@aux@sortscheme{nty}
\abx@aux@refcontext{nty/global/}
\@writefile{toc}{\boolfalse {citerequest}\boolfalse {citetracker}\boolfalse {pagetracker}\boolfalse {backtracker}\relax }
\@writefile{lof}{\boolfalse {citerequest}\boolfalse {citetracker}\boolfalse {pagetracker}\boolfalse {backtracker}\relax }
\@writefile{lot}{\boolfalse {citerequest}\boolfalse {citetracker}\boolfalse {pagetracker}\boolfalse {backtracker}\relax }
\select@language{english}
\@writefile{toc}{\defcounter {refsection}{0}\relax }\@writefile{toc}{\select@language{english}}
\@writefile{lof}{\defcounter {refsection}{0}\relax }\@writefile{lof}{\select@language{english}}
\@writefile{lot}{\defcounter {refsection}{0}\relax }\@writefile{lot}{\select@language{english}}
\@writefile{toc}{\defcounter {refsection}{0}\relax }\@writefile{toc}{\contentsline {section}{\numberline {1}Problem, Goal and Approach}{1}}
\newlabel{goal}{{1}{1}}
\abx@aux@cite{Rebaudi2004}
\abx@aux@segm{0}{0}{Rebaudi2004}
\abx@aux@cite{Baril2011}
\abx@aux@segm{0}{0}{Baril2011}
\abx@aux@cite{inviwo}
\abx@aux@segm{0}{0}{inviwo}
\@writefile{toc}{\defcounter {refsection}{0}\relax }\@writefile{toc}{\contentsline {section}{\numberline {2}Previous Work}{2}}
\@writefile{toc}{\defcounter {refsection}{0}\relax }\@writefile{toc}{\contentsline {section}{\numberline {3}Implementation}{2}}
\@writefile{toc}{\defcounter {refsection}{0}\relax }\@writefile{toc}{\contentsline {section}{\numberline {4}Risks}{2}}
\abx@aux@number{3}{Baril2011}{0}{nty/global/}{1}
\abx@aux@number{4}{inviwo}{0}{nty/global/}{2}
\abx@aux@number{5}{Rebaudi2004}{0}{nty/global/}{3}
\abx@aux@refcontextdefaultsdone
\abx@aux@defaultrefcontext{0}{Baril2011}{nty/global/}
\abx@aux@defaultrefcontext{0}{inviwo}{nty/global/}
\abx@aux@defaultrefcontext{0}{Rebaudi2004}{nty/global/}
\@writefile{toc}{\defcounter {refsection}{0}\relax }\@writefile{toc}{\contentsline {section}{\numberline {5}Time Schedule}{3}}
