\relax 
\providecommand\hyper@newdestlabel[2]{}
\providecommand*\new@tpo@label[2]{}
\catcode `"\active 
\providecommand\HyperFirstAtBeginDocument{\AtBeginDocument}
\HyperFirstAtBeginDocument{\ifx\hyper@anchor\@undefined
\global\let\oldcontentsline\contentsline
\gdef\contentsline#1#2#3#4{\oldcontentsline{#1}{#2}{#3}}
\global\let\oldnewlabel\newlabel
\gdef\newlabel#1#2{\newlabelxx{#1}#2}
\gdef\newlabelxx#1#2#3#4#5#6{\oldnewlabel{#1}{{#2}{#3}}}
\AtEndDocument{\ifx\hyper@anchor\@undefined
\let\contentsline\oldcontentsline
\let\newlabel\oldnewlabel
\fi}
\fi}
\global\let\hyper@last\relax 
\gdef\HyperFirstAtBeginDocument#1{#1}
\providecommand\HyField@AuxAddToFields[1]{}
\providecommand\HyField@AuxAddToCoFields[2]{}
\bibstyle{plaindin}
\select@language{english}
\@writefile{toc}{\select@language{english}}
\@writefile{lof}{\select@language{english}}
\@writefile{lot}{\select@language{english}}
\@writefile{lol}{\select@language{english}}
\new@tpo@label{1}{1}
\new@tpo@label{2}{1}
\citation{Habibovic2008}
\citation{ni2017ct}
\citation{br2017mc}
\citation{in2017in}
\@writefile{toc}{\contentsline {chapter}{\numberline {1}Introduction}{1}{chapter.1}}
\@writefile{lof}{\addvspace {10\p@ }}
\@writefile{lot}{\addvspace {10\p@ }}
\@writefile{lol}{\addvspace {10\p@ }}
\newlabel{chp:introduction}{{1}{1}{Introduction}{chapter.1}{}}
\@writefile{lof}{\contentsline {figure}{\numberline {\relax 1.1}{\ignorespaces Flow of data in this project. The implant first gets scanned using micro-CT. After this, a computational reconstruction of the dataset is necessary to get a volumetric dataset. Then FIJI is used as another transformation tool to make the data readable for Inviwo, the visualization framework used in this context.\relax }}{2}{figure.caption.3}}
\providecommand*\caption@xref[2]{\@setref\relax\@undefined{#1}}
\newlabel{fig:dataflow}{{\relax 1.1}{2}{Flow of data in this project. The implant first gets scanned using micro-CT. After this, a computational reconstruction of the dataset is necessary to get a volumetric dataset. Then FIJI is used as another transformation tool to make the data readable for Inviwo, the visualization framework used in this context.\relax }{figure.caption.3}{}}
\citation{Bhaskar1971}
\@writefile{toc}{\contentsline {section}{\numberline {1.1}General Problem}{3}{section.1.1}}
\newlabel{sec:generalProblem}{{1.1}{3}{General Problem}{section.1.1}{}}
\@writefile{toc}{\contentsline {section}{\numberline {1.2}Concept}{4}{section.1.2}}
\newlabel{sec:concept}{{1.2}{4}{Concept}{section.1.2}{}}
\@writefile{toc}{\contentsline {subsection}{\numberline {1.2.1}Cylindrical Shape Recognition}{4}{subsection.1.2.1}}
\@writefile{lof}{\contentsline {figure}{\numberline {\relax 1.2}{\ignorespaces The cylindrical shape of an implant. This scan was taken before the implant was placed in the bone tissue. The implant is displayed in its full size, standing on a solid ground. The cylindrical shape is clearly recognizable while the internal structure is not as clear as desired.\relax }}{5}{figure.caption.4}}
\newlabel{fig:cylinder}{{\relax 1.2}{5}{The cylindrical shape of an implant. This scan was taken before the implant was placed in the bone tissue. The implant is displayed in its full size, standing on a solid ground. The cylindrical shape is clearly recognizable while the internal structure is not as clear as desired.\relax }{figure.caption.4}{}}
\@writefile{toc}{\contentsline {subsection}{\numberline {1.2.2}Model Integration}{6}{subsection.1.2.2}}
\@writefile{lof}{\contentsline {figure}{\numberline {\relax 1.3}{\ignorespaces A mockup of the implant model being integrated into the volumetric dataset. The integrated model is now easily separable from bone tissue. The mockup was generated combining two images, one image of the model and one of the visualized dataset.\relax }}{6}{figure.caption.5}}
\newlabel{fig:integration_mock}{{\relax 1.3}{6}{A mockup of the implant model being integrated into the volumetric dataset. The integrated model is now easily separable from bone tissue. The mockup was generated combining two images, one image of the model and one of the visualized dataset.\relax }{figure.caption.5}{}}
\@writefile{toc}{\contentsline {subsection}{\numberline {1.2.3}Ingrowth Visualization}{7}{subsection.1.2.3}}
\@writefile{lof}{\contentsline {figure}{\numberline {\relax 1.4}{\ignorespaces Model of the implant used in this work. This model gets 3D-printed and then implanted into the bone tissue. One can clearly see the structure of the printing with its printing lines. The implant is printed in layers, changing from horizontal to vertical each layer.\relax }}{8}{figure.caption.6}}
\newlabel{fig:implant_model}{{\relax 1.4}{8}{Model of the implant used in this work. This model gets 3D-printed and then implanted into the bone tissue. One can clearly see the structure of the printing with its printing lines. The implant is printed in layers, changing from horizontal to vertical each layer.\relax }{figure.caption.6}{}}
\@writefile{toc}{\contentsline {subsection}{\numberline {1.2.4}Visualization Concepts}{9}{subsection.1.2.4}}
\newlabel{subsec:visualizationConcepts}{{1.2.4}{9}{Visualization Concepts}{subsection.1.2.4}{}}
\@writefile{lof}{\contentsline {figure}{\numberline {\relax 1.5}{\ignorespaces Mockup of the visualization of bone ingrowth for one layer of the implant. This is not a real dataset and was just generated for visualization purposes. The implant structure is displayed in white while bone tissue has been modelled in blue.\relax }}{9}{figure.caption.7}}
\newlabel{fig:layer_vis}{{\relax 1.5}{9}{Mockup of the visualization of bone ingrowth for one layer of the implant. This is not a real dataset and was just generated for visualization purposes. The implant structure is displayed in white while bone tissue has been modelled in blue.\relax }{figure.caption.7}{}}
\@writefile{lof}{\contentsline {figure}{\numberline {\relax 1.6}{\ignorespaces Mockup of the visualization of bone ingrowth for one channel of the implant. This is not a real dataset and was just generated for visualization purposes. In the top left, one can see the original dataset with a red indicator for which channel was picked. Colored lines are located at the channel in the original dataset as well as at the top of the heatmap visualization for visualizing which part belongs where. The heatmap visualizes the bone ingrowth as described in the bottom left.\relax }}{11}{figure.caption.8}}
\newlabel{fig:channel_vis}{{\relax 1.6}{11}{Mockup of the visualization of bone ingrowth for one channel of the implant. This is not a real dataset and was just generated for visualization purposes. In the top left, one can see the original dataset with a red indicator for which channel was picked. Colored lines are located at the channel in the original dataset as well as at the top of the heatmap visualization for visualizing which part belongs where. The heatmap visualizes the bone ingrowth as described in the bottom left.\relax }{figure.caption.8}{}}
\@writefile{lof}{\contentsline {figure}{\numberline {\relax 1.7}{\ignorespaces Mockup for the partial visualization of one printing line. This was not implemented and was only generated for demonstration purposes. In the top right, one can see a model of the implant. The red color in this signals which part of the implant is currently visualized. In the center of the visualization, one can see a three-dimensional structure visualizing the ingrowth height. The surface of the printing line gets projected on a plane for this to be possible.\relax }}{12}{figure.caption.9}}
\newlabel{fig:height_vis}{{\relax 1.7}{12}{Mockup for the partial visualization of one printing line. This was not implemented and was only generated for demonstration purposes. In the top right, one can see a model of the implant. The red color in this signals which part of the implant is currently visualized. In the center of the visualization, one can see a three-dimensional structure visualizing the ingrowth height. The surface of the printing line gets projected on a plane for this to be possible.\relax }{figure.caption.9}{}}
\@writefile{toc}{\contentsline {section}{\numberline {1.3}Overview}{12}{section.1.3}}
\citation{Pilliar1986}
\citation{Soballe1993}
\citation{Gauthier1998}
\citation{Mathieu2014}
\@writefile{toc}{\contentsline {chapter}{\numberline {2}Related Work}{15}{chapter.2}}
\@writefile{lof}{\addvspace {10\p@ }}
\@writefile{lot}{\addvspace {10\p@ }}
\@writefile{lol}{\addvspace {10\p@ }}
\@writefile{toc}{\contentsline {section}{\numberline {2.1}Implant Ingrowth Research}{15}{section.2.1}}
\citation{Mathieu2014}
\citation{Otsuki2006}
\citation{Hatcher2003}
\citation{Jones2007}
\citation{Drishti2017}
\citation{Jones2007}
\citation{Jones2007}
\@writefile{toc}{\contentsline {section}{\numberline {2.2}Implant Visualization}{18}{section.2.2}}
\citation{Dick2008}
\citation{Dick2008}
\citation{Dick2008}
\@writefile{lof}{\contentsline {figure}{\numberline {\relax 2.1}{\ignorespaces Approach to visualizing an implant through micro-CT scanning. The probe gets cut out of the tibia of a sheep and then scanned. Visualization is done by applying a transfer function to the volumetric dataset and then applying raycasting. This approach does not provide any special visualization tools for visualizing the bone ingrowth. (Image source: \cite  {Jones2007})\relax }}{19}{figure.caption.10}}
\newlabel{fig:ealryvis}{{\relax 2.1}{19}{Approach to visualizing an implant through micro-CT scanning. The probe gets cut out of the tibia of a sheep and then scanned. Visualization is done by applying a transfer function to the volumetric dataset and then applying raycasting. This approach does not provide any special visualization tools for visualizing the bone ingrowth. (Image source: \cite {Jones2007})\relax }{figure.caption.10}{}}
\citation{Dick2009}
\citation{Krekel2006}
\@writefile{lof}{\contentsline {figure}{\numberline {\relax 2.2}{\ignorespaces Screenshots of the simulation environment: Left: Semi-transparent rendering of the femur and the implant (green color), as well as the volume rendering of the femur\IeC {\textquoteright }s interior structures, support the positioning of the implant. Right: The load on the femur is indicated by the yellow arrow and sphere, and the resulting stresses in the volume are visualized with red color. (Image source: \cite  {Dick2008})\relax }}{20}{figure.caption.11}}
\newlabel{fig:implant_stress}{{\relax 2.2}{20}{Screenshots of the simulation environment: Left: Semi-transparent rendering of the femur and the implant (green color), as well as the volume rendering of the femur’s interior structures, support the positioning of the implant. Right: The load on the femur is indicated by the yellow arrow and sphere, and the resulting stresses in the volume are visualized with red color. (Image source: \cite {Dick2008})\relax }{figure.caption.11}{}}
\citation{Krekel2006}
\citation{Krekel2006}
\citation{Sun2007}
\@writefile{lof}{\contentsline {figure}{\numberline {\relax 2.3}{\ignorespaces Range of motion simulation. The implant gets projected into the dataset. Then its range of motion gets analyzed through collision detection. The range of motion is visualized through the white envelope. (Image source: \cite  {Krekel2006})\relax }}{21}{figure.caption.12}}
\newlabel{fig:rom}{{\relax 2.3}{21}{Range of motion simulation. The implant gets projected into the dataset. Then its range of motion gets analyzed through collision detection. The range of motion is visualized through the white envelope. (Image source: \cite {Krekel2006})\relax }{figure.caption.12}{}}
\citation{ni2017ct}
\citation{br2017mc}
\@writefile{toc}{\contentsline {chapter}{\numberline {3}Realization through the Visualization Pipeline}{23}{chapter.3}}
\@writefile{lof}{\addvspace {10\p@ }}
\@writefile{lot}{\addvspace {10\p@ }}
\@writefile{lol}{\addvspace {10\p@ }}
\newlabel{chp:tools}{{3}{23}{Realization through the Visualization Pipeline}{chapter.3}{}}
\@writefile{lof}{\contentsline {figure}{\numberline {\relax 3.1}{\ignorespaces Illustration of the visualization pipeline steps. First, data is acquired which results in raw datasets. Then this raw data gets processed through certain transformations. After that, it gets mapped to a visualization as the data representation. The mapped data can now get rendered onto one or multiple images to generate the visualization and be inspected by the user.\relax }}{23}{figure.caption.13}}
\newlabel{fig:vis_pipeline}{{\relax 3.1}{23}{Illustration of the visualization pipeline steps. First, data is acquired which results in raw datasets. Then this raw data gets processed through certain transformations. After that, it gets mapped to a visualization as the data representation. The mapped data can now get rendered onto one or multiple images to generate the visualization and be inspected by the user.\relax }{figure.caption.13}{}}
\citation{br2017micro}
\citation{br2017micro}
\citation{schindelin2012fiji}
\@writefile{toc}{\contentsline {section}{\numberline {3.1}Data Acquisition}{24}{section.3.1}}
\@writefile{toc}{\contentsline {section}{\numberline {3.2}Data Enhancement}{24}{section.3.2}}
\citation{in2017in}
\@writefile{lof}{\contentsline {figure}{\numberline {\relax 3.2}{\ignorespaces Illustration of the micro-CT imaging technology. Left: Radiation source rotating around the object. The rays are projected onto the 2D detection plane behind the object, following the rotation. Right: Computational reconstruction of the volume data utilizing the 2D-images of the scanning process. (Image source: \cite  {br2017micro})\relax }}{25}{figure.caption.14}}
\newlabel{fig:microCT}{{\relax 3.2}{25}{Illustration of the micro-CT imaging technology. Left: Radiation source rotating around the object. The rays are projected onto the 2D detection plane behind the object, following the rotation. Right: Computational reconstruction of the volume data utilizing the 2D-images of the scanning process. (Image source: \cite {br2017micro})\relax }{figure.caption.14}{}}
\@writefile{toc}{\contentsline {section}{\numberline {3.3}Data Mapping and Image Rendering}{26}{section.3.3}}
\newlabel{sec:inviwo}{{3.3}{26}{Data Mapping and Image Rendering}{section.3.3}{}}
\@writefile{lof}{\contentsline {figure}{\numberline {\relax 3.3}{\ignorespaces Example processor architecture for the visualization of a volumetric data set. The image was taken from an example visualization of Inviwo. Volume Source loads the volume dataset from a file, CubeProxyGeometry takes the geometry of the volume, EntryExitPoints then calculates the entry and exit points for the Raycasting process, the VolumeRaycaster applies raycasting and thus generates the volume visualization, Background applies a background for all regions where the raycasting did not hit the volume and CanvasGL outputs the image as seen on the right.\relax }}{26}{figure.caption.15}}
\newlabel{fig:processArch}{{\relax 3.3}{26}{Example processor architecture for the visualization of a volumetric data set. The image was taken from an example visualization of Inviwo. Volume Source loads the volume dataset from a file, CubeProxyGeometry takes the geometry of the volume, EntryExitPoints then calculates the entry and exit points for the Raycasting process, the VolumeRaycaster applies raycasting and thus generates the volume visualization, Background applies a background for all regions where the raycasting did not hit the volume and CanvasGL outputs the image as seen on the right.\relax }{figure.caption.15}{}}
\@writefile{toc}{\contentsline {chapter}{\numberline {4}Implementation}{29}{chapter.4}}
\@writefile{lof}{\addvspace {10\p@ }}
\@writefile{lot}{\addvspace {10\p@ }}
\@writefile{lol}{\addvspace {10\p@ }}
\newlabel{chp:implementation}{{4}{29}{Implementation}{chapter.4}{}}
\@writefile{toc}{\contentsline {section}{\numberline {4.1}Implant Recognition}{29}{section.4.1}}
\citation{Hough1962}
\citation{ballard1981generalizing}
\@writefile{toc}{\contentsline {subsection}{\numberline {4.1.1}Shape Recognition}{30}{subsection.4.1.1}}
\@writefile{lof}{\contentsline {figure}{\numberline {\relax 4.1}{\ignorespaces This figure shows how Hough Transform extracts the parameters $\rho $ (distance) and $\theta $ (angle) of the lines in the original image (left) and writes the possible values into the parameter space (right). In the right image, $\theta $ is represented by the y-Axis and $\rho $ by the x-Axis. The two maxima in the right image indicate the parameters for the two lines in the left image.\relax }}{31}{figure.caption.16}}
\newlabel{fig:houghlines}{{\relax 4.1}{31}{This figure shows how Hough Transform extracts the parameters $\rho $ (distance) and $\theta $ (angle) of the lines in the original image (left) and writes the possible values into the parameter space (right). In the right image, $\theta $ is represented by the y-Axis and $\rho $ by the x-Axis. The two maxima in the right image indicate the parameters for the two lines in the left image.\relax }{figure.caption.16}{}}
\@writefile{toc}{\contentsline {subsection}{\numberline {4.1.2}Circle Detection}{32}{subsection.4.1.2}}
\newlabel{subsec:circledetection}{{4.1.2}{32}{Circle Detection}{subsection.4.1.2}{}}
\@writefile{lof}{\contentsline {figure}{\numberline {\relax 4.2}{\ignorespaces Preprocessing steps for Hough Transform, top left: input image with intensity values of CT-scan displayed in grey values; top right: conversion into binary image, binary threshold set manually to roughly filter between implant and bone tissue; bottom left: low-pass filter to reduce noise; bottom right: edge detection with manually set threshold\relax }}{33}{figure.caption.17}}
\newlabel{fig:imageprocessing}{{\relax 4.2}{33}{Preprocessing steps for Hough Transform, top left: input image with intensity values of CT-scan displayed in grey values; top right: conversion into binary image, binary threshold set manually to roughly filter between implant and bone tissue; bottom left: low-pass filter to reduce noise; bottom right: edge detection with manually set threshold\relax }{figure.caption.17}{}}
\@writefile{lof}{\contentsline {figure}{\numberline {\relax 4.3}{\ignorespaces Vote-Space image of Hough Transform. This was generated by the Inviwo processor that was developed in this context and is the output for a real implant scan slice. The brighter the color for one pixel is, the higher is as well the probability of this pixel being a circle center. One can clearly see the circular incrementation that gets applied by the algorithm.\relax }}{35}{figure.caption.18}}
\newlabel{fig:votespace}{{\relax 4.3}{35}{Vote-Space image of Hough Transform. This was generated by the Inviwo processor that was developed in this context and is the output for a real implant scan slice. The brighter the color for one pixel is, the higher is as well the probability of this pixel being a circle center. One can clearly see the circular incrementation that gets applied by the algorithm.\relax }{figure.caption.18}{}}
\@writefile{toc}{\contentsline {subsection}{\numberline {4.1.3}Position and Length Estimation}{37}{subsection.4.1.3}}
\@writefile{lof}{\contentsline {figure}{\numberline {\relax 4.4}{\ignorespaces Intensity function of the volume along the preselected normal. Intensities of each slice get summed up individually and divided by the number of pixels in that slice. As the last step, these sums get normalized so that the highest value equals to one and the lowest to zero. The red area marks the implant position and can be controlled by the user with the modification of two float value parameters.\relax }}{37}{figure.caption.19}}
\newlabel{fig:slicesintensities}{{\relax 4.4}{37}{Intensity function of the volume along the preselected normal. Intensities of each slice get summed up individually and divided by the number of pixels in that slice. As the last step, these sums get normalized so that the highest value equals to one and the lowest to zero. The red area marks the implant position and can be controlled by the user with the modification of two float value parameters.\relax }{figure.caption.19}{}}
\@writefile{toc}{\contentsline {subsection}{\numberline {4.1.4}Implant Orientation and Rotation}{38}{subsection.4.1.4}}
\newlabel{subsec:orientationrotation}{{4.1.4}{38}{Implant Orientation and Rotation}{subsection.4.1.4}{}}
\@writefile{lof}{\contentsline {figure}{\numberline {\relax 4.5}{\ignorespaces Illustration of variables $\rho $ and $\theta $ that have to be determined to exactly fit a model of the implant into the volumetric dataset. $\theta $ defines the rotation around the implants main axis while $\rho $ signals its orientation.\relax }}{39}{figure.caption.20}}
\newlabel{fig:orientationrotation}{{\relax 4.5}{39}{Illustration of variables $\rho $ and $\theta $ that have to be determined to exactly fit a model of the implant into the volumetric dataset. $\theta $ defines the rotation around the implants main axis while $\rho $ signals its orientation.\relax }{figure.caption.20}{}}
\citation{Kniss2002}
\@writefile{lof}{\contentsline {figure}{\numberline {\relax 4.6}{\ignorespaces Comparison of different resolutions of the same scan. One can see that the higher resolution does not allow for a better recognition of the printing line direction. The left image is less than one-third of the resolution per axis compared to the right image, leading to a total compression ratio of about 10.\relax }}{40}{figure.caption.21}}
\newlabel{fig:resolutiontest}{{\relax 4.6}{40}{Comparison of different resolutions of the same scan. One can see that the higher resolution does not allow for a better recognition of the printing line direction. The left image is less than one-third of the resolution per axis compared to the right image, leading to a total compression ratio of about 10.\relax }{figure.caption.21}{}}
\@writefile{lof}{\contentsline {subfigure}{\numberline{(a)}{\ignorespaces {450*450 px per slice image}}}{40}{subfigure.6.1}}
\@writefile{lof}{\contentsline {subfigure}{\numberline{(b)}{\ignorespaces {1500*1500 px per slice image}}}{40}{subfigure.6.2}}
\@writefile{lof}{\contentsline {figure}{\numberline {\relax 4.7}{\ignorespaces Application of a Multidimensional Transfer Function for the Visible Male CT dataset. This shows how the borders of materials can be visualized. In this case, the bone structure, as well as the skin of the head are displayed by using a two-dimensional transfer function with intensity value and gradient magnitude as its variables.\relax }}{41}{figure.caption.22}}
\newlabel{fig:multifunc}{{\relax 4.7}{41}{Application of a Multidimensional Transfer Function for the Visible Male CT dataset. This shows how the borders of materials can be visualized. In this case, the bone structure, as well as the skin of the head are displayed by using a two-dimensional transfer function with intensity value and gradient magnitude as its variables.\relax }{figure.caption.22}{}}
\@writefile{lof}{\contentsline {figure}{\numberline {\relax 4.8}{\ignorespaces Example illustration of the importance of the direction of the main implant axis. One can clearly see that in the left image, where the implant is standing upright, the layer is clearly recognizable. On the image in the middle, one can still see some structure but not classify between horizontal and vertical. On the right image, no structure is recognizable. These images are examples of this effect, which might vary in different images. The effect, however, seems to be observable through multiple scans.\relax }}{42}{figure.caption.23}}
\newlabel{fig:axisimportance}{{\relax 4.8}{42}{Example illustration of the importance of the direction of the main implant axis. One can clearly see that in the left image, where the implant is standing upright, the layer is clearly recognizable. On the image in the middle, one can still see some structure but not classify between horizontal and vertical. On the right image, no structure is recognizable. These images are examples of this effect, which might vary in different images. The effect, however, seems to be observable through multiple scans.\relax }{figure.caption.23}{}}
\@writefile{lof}{\contentsline {subfigure}{\numberline{(a)}{\ignorespaces {Implant only scan, standing upright on a planar surface}}}{42}{subfigure.8.1}}
\@writefile{lof}{\contentsline {subfigure}{\numberline{(b)}{\ignorespaces {Implant differs slightly from the main axis}}}{42}{subfigure.8.2}}
\@writefile{lof}{\contentsline {subfigure}{\numberline{(c)}{\ignorespaces {Implant axis far from the main axis}}}{42}{subfigure.8.3}}
\@writefile{toc}{\contentsline {section}{\numberline {4.2}Visualization Approach}{43}{section.4.2}}
\@writefile{toc}{\contentsline {chapter}{\numberline {5}Results}{45}{chapter.5}}
\@writefile{lof}{\addvspace {10\p@ }}
\@writefile{lot}{\addvspace {10\p@ }}
\@writefile{lol}{\addvspace {10\p@ }}
\@writefile{toc}{\contentsline {section}{\numberline {5.1}Circle Detection}{45}{section.5.1}}
\newlabel{sec:resultscircle}{{5.1}{45}{Circle Detection}{section.5.1}{}}
\@writefile{lof}{\contentsline {figure}{\numberline {\relax 5.1}{\ignorespaces Output images of the circle detection. These show different datasets or detection variables. It is clearly observable that scan quality is not a limiting factor for this algorithm as (a), (b) and (c) are all correct circle detections although their image quality varies highly. Detection parameters, however, are very important for the algorithm. (d) illustrates how a tilted normal makes a circle position estimation impossible.\relax }}{46}{figure.caption.24}}
\newlabel{fig:hough_compare}{{\relax 5.1}{46}{Output images of the circle detection. These show different datasets or detection variables. It is clearly observable that scan quality is not a limiting factor for this algorithm as (a), (b) and (c) are all correct circle detections although their image quality varies highly. Detection parameters, however, are very important for the algorithm. (d) illustrates how a tilted normal makes a circle position estimation impossible.\relax }{figure.caption.24}{}}
\@writefile{lof}{\contentsline {subfigure}{\numberline{(a)}{\ignorespaces {Implant only scan with high quality and distinguishable lines.}}}{46}{subfigure.1.1}}
\@writefile{lof}{\contentsline {subfigure}{\numberline{(b)}{\ignorespaces {Implanted probe, lines hardly distinguishable.}}}{46}{subfigure.1.2}}
\@writefile{lof}{\contentsline {subfigure}{\numberline{(c)}{\ignorespaces {Implanted probe, lines not distinguishable.}}}{46}{subfigure.1.3}}
\@writefile{lof}{\contentsline {subfigure}{\numberline{(d)}{\ignorespaces {Tilted plane normal, Hough Transform does not really work.}}}{46}{subfigure.1.4}}
\@writefile{toc}{\contentsline {section}{\numberline {5.2}Position and Length Estimation}{47}{section.5.2}}
\@writefile{lof}{\contentsline {figure}{\numberline {\relax 5.2}{\ignorespaces Two implants compared. (a) shows an implant standing on a planar surface. The increase and decrease of intensity values are clearly visible. (b) shows an implanted probe that was cut out of the tissue before getting scanned. The shear cut manifests itself in having no clear change in the intensity function.\relax }}{48}{figure.caption.25}}
\newlabel{fig:length_compare}{{\relax 5.2}{48}{Two implants compared. (a) shows an implant standing on a planar surface. The increase and decrease of intensity values are clearly visible. (b) shows an implanted probe that was cut out of the tissue before getting scanned. The shear cut manifests itself in having no clear change in the intensity function.\relax }{figure.caption.25}{}}
\@writefile{lof}{\contentsline {subfigure}{\numberline{(a)}{\ignorespaces {Implant only scan showing a sudden increase and decrease of intensity values when the implant is starting and ending.}}}{48}{subfigure.2.1}}
\@writefile{lof}{\contentsline {subfigure}{\numberline{(b)}{\ignorespaces {Implanted probe cut at the end and thus not being planar at its ending.}}}{48}{subfigure.2.2}}
\@writefile{toc}{\contentsline {section}{\numberline {5.3}Cylinder Integration}{48}{section.5.3}}
\newlabel{sec:cylvis}{{5.3}{48}{Cylinder Integration}{section.5.3}{}}
\@writefile{lof}{\contentsline {figure}{\numberline {\relax 5.3}{\ignorespaces Multiple integrations of a cylindrical shape into the volumetric datasets. (a) and (b) show that the data quality does not play a big role in fitting a cylinder to the implant in the dataset. The fitting is relatively accurate in most cases. Big differences are only occurring when parameters are set badly like in illustrations (c), where a wrong radius is applied and (d) where the slice normal and the implant direction mismatch.\relax }}{49}{figure.caption.26}}
\newlabel{fig:cylinder_compare}{{\relax 5.3}{49}{Multiple integrations of a cylindrical shape into the volumetric datasets. (a) and (b) show that the data quality does not play a big role in fitting a cylinder to the implant in the dataset. The fitting is relatively accurate in most cases. Big differences are only occurring when parameters are set badly like in illustrations (c), where a wrong radius is applied and (d) where the slice normal and the implant direction mismatch.\relax }{figure.caption.26}{}}
\@writefile{lof}{\contentsline {subfigure}{\numberline{(a)}{\ignorespaces {Implant only scan with high quality clear internal structure.}}}{49}{subfigure.3.1}}
\@writefile{lof}{\contentsline {subfigure}{\numberline{(b)}{\ignorespaces {Implanted probe, bad quality. No structure recognizable.}}}{49}{subfigure.3.2}}
\@writefile{lof}{\contentsline {subfigure}{\numberline{(c)}{\ignorespaces {Wrong radius set for the implant.}}}{49}{subfigure.3.3}}
\@writefile{lof}{\contentsline {subfigure}{\numberline{(d)}{\ignorespaces {Wrong normal set for the implant.}}}{49}{subfigure.3.4}}
\@writefile{toc}{\contentsline {chapter}{\numberline {6}Limitations}{51}{chapter.6}}
\@writefile{lof}{\addvspace {10\p@ }}
\@writefile{lot}{\addvspace {10\p@ }}
\@writefile{lol}{\addvspace {10\p@ }}
\newlabel{chp:limitations}{{6}{51}{Limitations}{chapter.6}{}}
\@writefile{toc}{\contentsline {section}{\numberline {6.1}Implant Variations}{51}{section.6.1}}
\@writefile{lof}{\contentsline {figure}{\numberline {\relax 6.1}{\ignorespaces Comparative study of the implant model with a printed implant. It is clearly observable that the readily printed implant varied notably from the implant model. If looked at from the side, one can see that the line structure of the implant seems to be transformed after the completion of the printing process.\relax }}{52}{figure.caption.27}}
\newlabel{fig:comparison}{{\relax 6.1}{52}{Comparative study of the implant model with a printed implant. It is clearly observable that the readily printed implant varied notably from the implant model. If looked at from the side, one can see that the line structure of the implant seems to be transformed after the completion of the printing process.\relax }{figure.caption.27}{}}
\@writefile{lof}{\contentsline {subfigure}{\numberline{(a)}{\ignorespaces {Implant model used in the printing process}}}{52}{subfigure.1.1}}
\@writefile{lof}{\contentsline {subfigure}{\numberline{(b)}{\ignorespaces {Printed implant photographed on a black surface}}}{52}{subfigure.1.2}}
\@writefile{toc}{\contentsline {section}{\numberline {6.2}Scan Quality}{52}{section.6.2}}
\@writefile{toc}{\contentsline {section}{\numberline {6.3}Implant Shape}{53}{section.6.3}}
\@writefile{toc}{\contentsline {section}{\numberline {6.4}User Interaction}{53}{section.6.4}}
\@writefile{toc}{\contentsline {chapter}{\numberline {7}Conclusion and Future Work}{55}{chapter.7}}
\@writefile{lof}{\addvspace {10\p@ }}
\@writefile{lot}{\addvspace {10\p@ }}
\@writefile{lol}{\addvspace {10\p@ }}
\@writefile{toc}{\contentsline {section}{\numberline {7.1}Conclusion}{55}{section.7.1}}
\@writefile{toc}{\contentsline {section}{\numberline {7.2}Future Work}{56}{section.7.2}}
\newlabel{sec:futurework}{{7.2}{56}{Future Work}{section.7.2}{}}
\@writefile{toc}{\contentsline {subsection}{\numberline {7.2.1}Data Quality}{56}{subsection.7.2.1}}
\@writefile{toc}{\contentsline {subsection}{\numberline {7.2.2}Implant Model Integration}{57}{subsection.7.2.2}}
\@writefile{toc}{\contentsline {subsection}{\numberline {7.2.3}Automation}{58}{subsection.7.2.3}}
\@writefile{toc}{\contentsline {subsection}{\numberline {7.2.4}Implant Shapes}{58}{subsection.7.2.4}}
\@writefile{toc}{\contentsline {subsection}{\numberline {7.2.5}Visualization Techniques}{59}{subsection.7.2.5}}
\@writefile{toc}{\contentsline {subsection}{\numberline {7.2.6}Hough Transform for multiple Radii}{60}{subsection.7.2.6}}
\@writefile{toc}{\contentsline {chapter}{\numberline {A}Source Code}{61}{appendix.A}}
\@writefile{lof}{\addvspace {10\p@ }}
\@writefile{lot}{\addvspace {10\p@ }}
\@writefile{lol}{\addvspace {10\p@ }}
\@writefile{toc}{\contentsline {section}{\numberline {A.1}GPU Hough Transform}{61}{section.A.1}}
\newlabel{src:houghtransform}{{A.1}{61}{GPU Hough Transform}{section.A.1}{}}
\bibdata{bibliography}
\bibcite{ballard1981generalizing}{{1}{}{{}}{{}}}
\bibcite{Bhaskar1971}{{2}{}{{}}{{}}}
\bibcite{ni2017ct}{{3}{}{{}}{{}}}
\bibcite{br2017micro}{{4}{}{{}}{{}}}
\bibcite{br2017mc}{{5}{}{{}}{{}}}
\bibcite{Dick2008}{{6}{}{{}}{{}}}
\bibcite{Dick2009}{{7}{}{{}}{{}}}
\@writefile{toc}{\contentsline {chapter}{\nonumberline Bibliography}{63}{chapter*.28}}
\@writefile{lof}{\addvspace {10\p@ }}
\@writefile{lot}{\addvspace {10\p@ }}
\@writefile{lol}{\addvspace {10\p@ }}
\bibcite{Drishti2017}{{8}{}{{}}{{}}}
\bibcite{in2017in}{{9}{}{{}}{{}}}
\bibcite{Gauthier1998}{{10}{}{{}}{{}}}
\bibcite{Habibovic2008}{{11}{}{{}}{{}}}
\bibcite{Hatcher2003}{{12}{}{{}}{{}}}
\bibcite{Hough1962}{{13}{}{{}}{{}}}
\bibcite{Jones2007}{{14}{}{{}}{{}}}
\bibcite{Kniss2002}{{15}{}{{}}{{}}}
\bibcite{Krekel2006}{{16}{}{{}}{{}}}
\bibcite{Mathieu2014}{{17}{}{{}}{{}}}
\bibcite{Otsuki2006}{{18}{}{{}}{{}}}
\bibcite{Pilliar1986}{{19}{}{{}}{{}}}
\bibcite{schindelin2012fiji}{{20}{}{{}}{{}}}
\bibcite{Soballe1993}{{21}{}{{}}{{}}}
\bibcite{Sun2007}{{22}{}{{}}{{}}}
\bibcite{wi2017ht}{{23}{}{{}}{{}}}
\providecommand\NAT@force@numbers{}\NAT@force@numbers
\global\csname @altsecnumformattrue\endcsname
\global\@namedef{scr@dte@chapter@lastmaxnumwidth}{11.21991pt}
\global\@namedef{scr@dte@section@lastmaxnumwidth}{19.00969pt}
\global\@namedef{scr@dte@subsection@lastmaxnumwidth}{26.23953pt}
